{
  "openapi": "3.0.1",
  "info": {
    "title": "ApiGateway-VivaAerobus-GenericApi",
    "version": "2021-01-07T06:28:55Z"
  },
  "servers": [
    {
      "url": "https://api-gw.vivaaerobus.com"
    }
  ],
  "paths": {
    "/v1/tools": {
      "options": {
        "parameters": [
          {
            "name": "proxy",
            "in": "path",
            "required": true,
            "schema": {
              "type": "string"
            }
          }
        ],
        "responses": {
          "200": {
            "description": "200 response",
            "content": {
              "application/json": {
                "schema": {
                  "$ref": "#/components/schemas/Empty"
                }
              }
            }
          }
        },
        "x-amazon-apigateway-integration": {
          "type": "http_proxy",
          "connectionId": "${stageVariables.VPCLink}",
          "httpMethod": "OPTIONS",
          "uri": "https://${stageVariables.genericApiHostname}/v1/tools",
          "responses": {
            "default": {
              "statusCode": "200"
            }
          },
          "requestParameters": {
            "integration.request.path.proxy": "method.request.path.proxy"
          },
          "passthroughBehavior": "when_no_match",
          "connectionType": "VPC_LINK",
          "cacheNamespace": "fsdsfs",
          "cacheKeyParameters": [
            "method.request.path.proxy"
          ]
        }
      },
      "x-amazon-apigateway-any-method": {
        "parameters": [
          {
            "name": "proxy",
            "in": "path",
            "required": true,
            "schema": {
              "type": "string"
            }
          }
        ],
        "responses": {
          "200": {
            "description": "200 response",
            "content": {}
          }
        },
        "x-amazon-apigateway-integration": {
          "type": "http_proxy",
          "connectionId": "${stageVariables.VPCLink}",
          "httpMethod": "ANY",
          "uri": "https://${stageVariables.genericApiHostname}/v1/tools",
          "responses": {
            "default": {
              "statusCode": "200",
              "responseTemplates": {
                "application/json": "#set($allowOrigins = $stageVariables.allowOrigins.split(\",\"))\n#set($currentHeader = $input.params().header.get(\"Origin\"))\n#foreach( $allowOrigin in $allowOrigins )\n#if ( $allowOrigin == $currentHeader )\n#set($context.responseOverride.header[\"Access-Control-Allow-Origin\"] = \"$currentHeader\")\n#set($flag = true)\n#end\n#end\n#if ($flag == \"\")\n#set($context.responseOverride.header[\"Access-Control-Allow-Origin\"] = \"https://www.vivaaerobus.com\")\n#end\n#set($context.responseOverride.header[\"Access-Control-Expose-Headers\"] = \"X-Correlation-ID,X-ApiVersion\")\n$input.body"
              }
            }
          },
          "requestParameters": {
            "integration.request.path.proxy": "method.request.path.proxy"
          },
          "passthroughBehavior": "when_no_match",
          "connectionType": "VPC_LINK",
          "cacheNamespace": "fsdsfs",
          "cacheKeyParameters": [
            "method.request.path.proxy"
          ]
        }
      }
    },
    "/v1/integration/{proxy+}": {
      "options": {
        "responses": {
          "200": {
            "description": "200 response",
            "headers": {
              "Access-Control-Allow-Origin": {
                "schema": {
                  "type": "string"
                }
              },
              "Access-Control-Allow-Methods": {
                "schema": {
                  "type": "string"
                }
              },
              "Access-Control-Allow-Headers": {
                "schema": {
                  "type": "string"
                }
              }
            },
            "content": {
              "application/json": {
                "schema": {
                  "$ref": "#/components/schemas/Empty"
                }
              }
            }
          }
        },
        "x-amazon-apigateway-integration": {
          "type": "mock",
          "responses": {
            "default": {
              "statusCode": "200",
              "responseParameters": {
                "method.response.header.Access-Control-Allow-Methods": "'DELETE,GET,HEAD,OPTIONS,PATCH,POST,PUT'",
                "method.response.header.Access-Control-Allow-Headers": "'Content-Type,Authorization,X-Amz-Date,X-Api-Key,X-Amz-Security-Token'",
                "method.response.header.Access-Control-Allow-Origin": "'*'"
              }
            }
          },
          "requestTemplates": {
            "application/json": "{\"statusCode\": 200}"
          },
          "passthroughBehavior": "when_no_match"
        }
      },
      "x-amazon-apigateway-any-method": {
        "parameters": [
          {
            "name": "proxy",
            "in": "path",
            "required": true,
            "schema": {
              "type": "string"
            }
          }
        ],
        "x-amazon-apigateway-integration": {
          "type": "http_proxy",
          "connectionId": "${stageVariables.VPCLink}",
          "httpMethod": "ANY",
          "uri": "https://${stageVariables.genericApiHostname}/v1/integration/{proxy}",
          "responses": {
            "default": {
              "statusCode": "200"
            }
          },
          "requestParameters": {
            "integration.request.path.proxy": "method.request.path.proxy"
          },
          "passthroughBehavior": "when_no_match",
          "connectionType": "VPC_LINK",
          "cacheNamespace": "7grwbd",
          "cacheKeyParameters": [
            "method.request.path.proxy"
          ]
        }
      }
    },
    "/v1/payment": {
      "options": {
        "parameters": [
          {
            "name": "proxy",
            "in": "path",
            "required": true,
            "schema": {
              "type": "string"
            }
          }
        ],
        "responses": {
          "200": {
            "description": "200 response",
            "content": {
              "application/json": {
                "schema": {
                  "$ref": "#/components/schemas/Empty"
                }
              }
            }
          }
        },
        "x-amazon-apigateway-integration": {
          "type": "http_proxy",
          "connectionId": "${stageVariables.VPCLink}",
          "httpMethod": "OPTIONS",
          "uri": "https://${stageVariables.genericApiHostname}/v1/payment",
          "responses": {
            "default": {
              "statusCode": "200"
            }
          },
          "requestParameters": {
            "integration.request.path.proxy": "method.request.path.proxy"
          },
          "passthroughBehavior": "when_no_match",
          "connectionType": "VPC_LINK",
          "cacheNamespace": "gsgdgd",
          "cacheKeyParameters": [
            "method.request.path.proxy"
          ]
        }
      },
      "x-amazon-apigateway-any-method": {
        "parameters": [
          {
            "name": "proxy",
            "in": "path",
            "required": true,
            "schema": {
              "type": "string"
            }
          }
        ],
        "responses": {
          "200": {
            "description": "200 response",
            "content": {}
          }
        },
        "security": [
          {
            "api_key": []
          }
        ],
        "x-amazon-apigateway-integration": {
          "type": "http_proxy",
          "connectionId": "${stageVariables.VPCLink}",
          "httpMethod": "ANY",
          "uri": "https://${stageVariables.genericApiHostname}/v1/payment",
          "responses": {
            "default": {
              "statusCode": "200",
              "responseTemplates": {
                "application/json": "#set($allowOrigins = $stageVariables.allowOrigins.split(\",\"))\n#set($currentHeader = $input.params().header.get(\"Origin\"))\n#foreach( $allowOrigin in $allowOrigins )\n#if ( $allowOrigin == $currentHeader )\n#set($context.responseOverride.header[\"Access-Control-Allow-Origin\"] = \"$currentHeader\")\n#set($flag = true)\n#end\n#end\n#if ($flag == \"\")\n#set($context.responseOverride.header[\"Access-Control-Allow-Origin\"] = \"https://www.vivaaerobus.com\")\n#end\n#set($context.responseOverride.header[\"Access-Control-Expose-Headers\"] = \"X-Correlation-ID,X-ApiVersion\")\n$input.body"
              }
            }
          },
          "requestParameters": {
            "integration.request.path.proxy": "method.request.path.proxy"
          },
          "passthroughBehavior": "when_no_match",
          "connectionType": "VPC_LINK",
          "cacheNamespace": "gsgdgd",
          "cacheKeyParameters": [
            "method.request.path.proxy"
          ]
        }
      }
    },
    "/v1/basket/{proxy+}": {
      "options": {
        "parameters": [
          {
            "name": "proxy",
            "in": "path",
            "required": true,
            "schema": {
              "type": "string"
            }
          }
        ],
        "responses": {
          "200": {
            "description": "200 response",
            "content": {
              "application/json": {
                "schema": {
                  "$ref": "#/components/schemas/Empty"
                }
              }
            }
          }
        },
        "x-amazon-apigateway-integration": {
          "type": "http_proxy",
          "connectionId": "${stageVariables.VPCLink}",
          "httpMethod": "OPTIONS",
          "uri": "https://${stageVariables.genericApiHostname}/v1/basket/{proxy}",
          "responses": {
            "default": {
              "statusCode": "200"
            }
          },
          "requestParameters": {
            "integration.request.path.proxy": "method.request.path.proxy"
          },
          "passthroughBehavior": "when_no_match",
          "connectionType": "VPC_LINK",
          "cacheNamespace": "asdfetw",
          "cacheKeyParameters": [
            "method.request.path.proxy"
          ]
        }
      },
      "x-amazon-apigateway-any-method": {
        "parameters": [
          {
            "name": "proxy",
            "in": "path",
            "required": true,
            "schema": {
              "type": "string"
            }
          }
        ],
        "responses": {
          "200": {
            "description": "200 response",
            "content": {}
          }
        },
        "security": [
          {
            "api_key": []
          }
        ],
        "x-amazon-apigateway-integration": {
          "type": "http_proxy",
          "connectionId": "${stageVariables.VPCLink}",
          "httpMethod": "ANY",
          "uri": "https://${stageVariables.genericApiHostname}/v1/basket/{proxy}",
          "responses": {
            "default": {
              "statusCode": "200",
              "responseTemplates": {
                "application/json": "#set($allowOrigins = $stageVariables.allowOrigins.split(\",\"))\n#set($currentHeader = $input.params().header.get(\"Origin\"))\n#foreach( $allowOrigin in $allowOrigins )\n#if ( $allowOrigin == $currentHeader )\n#set($context.responseOverride.header[\"Access-Control-Allow-Origin\"] = \"$currentHeader\")\n#set($flag = true)\n#end\n#end\n#if ($flag == \"\")\n#set($context.responseOverride.header[\"Access-Control-Allow-Origin\"] = \"https://www.vivaaerobus.com\")\n#end\n#set($context.responseOverride.header[\"Access-Control-Expose-Headers\"] = \"X-Correlation-ID,X-ApiVersion\")\n$input.body"
              }
            }
          },
          "requestParameters": {
            "integration.request.path.proxy": "method.request.path.proxy"
          },
          "passthroughBehavior": "when_no_match",
          "connectionType": "VPC_LINK",
          "cacheNamespace": "asdfetw",
          "cacheKeyParameters": [
            "method.request.path.proxy"
          ]
        }
      }
    },
    "/v1/basket": {
      "options": {
        "parameters": [
          {
            "name": "proxy",
            "in": "path",
            "required": true,
            "schema": {
              "type": "string"
            }
          }
        ],
        "responses": {
          "200": {
            "description": "200 response",
            "content": {
              "application/json": {
                "schema": {
                  "$ref": "#/components/schemas/Empty"
                }
              }
            }
          }
        },
        "x-amazon-apigateway-integration": {
          "type": "http_proxy",
          "connectionId": "${stageVariables.VPCLink}",
          "httpMethod": "OPTIONS",
          "uri": "https://${stageVariables.genericApiHostname}/v1/basket",
          "responses": {
            "default": {
              "statusCode": "200"
            }
          },
          "requestParameters": {
            "integration.request.path.proxy": "method.request.path.proxy"
          },
          "passthroughBehavior": "when_no_match",
          "connectionType": "VPC_LINK",
          "cacheNamespace": "asdfetw",
          "cacheKeyParameters": [
            "method.request.path.proxy"
          ]
        }
      },
      "x-amazon-apigateway-any-method": {
        "parameters": [
          {
            "name": "proxy",
            "in": "path",
            "required": true,
            "schema": {
              "type": "string"
            }
          }
        ],
        "responses": {
          "200": {
            "description": "200 response",
            "content": {}
          }
        },
        "security": [
          {
            "api_key": []
          }
        ],
        "x-amazon-apigateway-integration": {
          "type": "http_proxy",
          "connectionId": "${stageVariables.VPCLink}",
          "httpMethod": "ANY",
          "uri": "https://${stageVariables.genericApiHostname}/v1/basket",
          "responses": {
            "default": {
              "statusCode": "200",
              "responseTemplates": {
                "application/json": "#set($allowOrigins = $stageVariables.allowOrigins.split(\",\"))\n#set($currentHeader = $input.params().header.get(\"Origin\"))\n#foreach( $allowOrigin in $allowOrigins )\n#if ( $allowOrigin == $currentHeader )\n#set($context.responseOverride.header[\"Access-Control-Allow-Origin\"] = \"$currentHeader\")\n#set($flag = true)\n#end\n#end\n#if ($flag == \"\")\n#set($context.responseOverride.header[\"Access-Control-Allow-Origin\"] = \"https://www.vivaaerobus.com\")\n#end\n#set($context.responseOverride.header[\"Access-Control-Expose-Headers\"] = \"X-Correlation-ID,X-ApiVersion\")\n$input.body"
              }
            }
          },
          "requestParameters": {
            "integration.request.path.proxy": "method.request.path.proxy"
          },
          "passthroughBehavior": "when_no_match",
          "connectionType": "VPC_LINK",
          "cacheNamespace": "asdfetw",
          "cacheKeyParameters": [
            "method.request.path.proxy"
          ]
        }
      }
    },
    "/v1/swagger": {
      "options": {
        "responses": {
          "200": {
            "description": "200 response",
            "headers": {
              "Access-Control-Allow-Origin": {
                "schema": {
                  "type": "string"
                }
              },
              "Access-Control-Allow-Methods": {
                "schema": {
                  "type": "string"
                }
              },
              "Access-Control-Allow-Headers": {
                "schema": {
                  "type": "string"
                }
              }
            },
            "content": {
              "application/json": {
                "schema": {
                  "$ref": "#/components/schemas/Empty"
                }
              }
            }
          }
        },
        "x-amazon-apigateway-integration": {
          "type": "mock",
          "responses": {
            "default": {
              "statusCode": "200",
              "responseParameters": {
                "method.response.header.Access-Control-Allow-Methods": "'DELETE,GET,HEAD,OPTIONS,PATCH,POST,PUT'",
                "method.response.header.Access-Control-Allow-Headers": "'Content-Type,Authorization,X-Amz-Date,X-Api-Key,X-Amz-Security-Token'",
                "method.response.header.Access-Control-Allow-Origin": "'*'"
              }
            }
          },
          "requestTemplates": {
            "application/json": "{\"statusCode\": 200}"
          },
          "passthroughBehavior": "when_no_match"
        }
      }
    },
    "/v1/booking/{proxy+}": {
      "options": {
        "parameters": [
          {
            "name": "proxy",
            "in": "path",
            "required": true,
            "schema": {
              "type": "string"
            }
          }
        ],
        "responses": {
          "200": {
            "description": "200 response",
            "content": {
              "application/json": {
                "schema": {
                  "$ref": "#/components/schemas/Empty"
                }
              }
            }
          }
        },
        "x-amazon-apigateway-integration": {
          "type": "http_proxy",
          "connectionId": "${stageVariables.VPCLink}",
          "httpMethod": "OPTIONS",
          "uri": "https://${stageVariables.genericApiHostname}/v1/booking/{proxy}",
          "responses": {
            "default": {
              "statusCode": "200"
            }
          },
          "requestParameters": {
            "integration.request.path.proxy": "method.request.path.proxy"
          },
          "passthroughBehavior": "when_no_match",
          "connectionType": "VPC_LINK",
          "cacheNamespace": "asdfetw",
          "cacheKeyParameters": [
            "method.request.path.proxy"
          ]
        }
      },
      "x-amazon-apigateway-any-method": {
        "parameters": [
          {
            "name": "proxy",
            "in": "path",
            "required": true,
            "schema": {
              "type": "string"
            }
          }
        ],
        "responses": {
          "200": {
            "description": "200 response",
            "content": {}
          }
        },
        "security": [
          {
            "api_key": []
          }
        ],
        "x-amazon-apigateway-integration": {
          "type": "http_proxy",
          "connectionId": "${stageVariables.VPCLink}",
          "httpMethod": "ANY",
          "uri": "https://${stageVariables.genericApiHostname}/v1/booking/{proxy}",
          "responses": {
            "default": {
              "statusCode": "200",
              "responseTemplates": {
                "application/json": "#set($allowOrigins = $stageVariables.allowOrigins.split(\",\"))\n#set($currentHeader = $input.params().header.get(\"Origin\"))\n#foreach( $allowOrigin in $allowOrigins )\n#if ( $allowOrigin == $currentHeader )\n#set($context.responseOverride.header[\"Access-Control-Allow-Origin\"] = \"$currentHeader\")\n#set($flag = true)\n#end\n#end\n#if ($flag == \"\")\n#set($context.responseOverride.header[\"Access-Control-Allow-Origin\"] = \"https://www.vivaaerobus.com\")\n#end\n#set($context.responseOverride.header[\"Access-Control-Expose-Headers\"] = \"X-Correlation-ID,X-ApiVersion\")\n$input.body"
              }
            }
          },
          "requestParameters": {
            "integration.request.path.proxy": "method.request.path.proxy"
          },
          "passthroughBehavior": "when_no_match",
          "connectionType": "VPC_LINK",
          "cacheNamespace": "asdfetw",
          "cacheKeyParameters": [
            "method.request.path.proxy"
          ]
        }
      }
    },
    "/v1/checkin/{proxy+}": {
      "options": {
        "parameters": [
          {
            "name": "proxy",
            "in": "path",
            "required": true,
            "schema": {
              "type": "string"
            }
          }
        ],
        "responses": {
          "200": {
            "description": "200 response",
            "content": {
              "application/json": {
                "schema": {
                  "$ref": "#/components/schemas/Empty"
                }
              }
            }
          }
        },
        "x-amazon-apigateway-integration": {
          "type": "http_proxy",
          "connectionId": "${stageVariables.VPCLink}",
          "httpMethod": "OPTIONS",
          "uri": "https://${stageVariables.genericApiHostname}/v1/checkin/{proxy}",
          "responses": {
            "default": {
              "statusCode": "200"
            }
          },
          "requestParameters": {
            "integration.request.path.proxy": "method.request.path.proxy"
          },
          "passthroughBehavior": "when_no_match",
          "connectionType": "VPC_LINK",
          "cacheNamespace": "fhjfgj",
          "cacheKeyParameters": [
            "method.request.path.proxy"
          ]
        }
      },
      "x-amazon-apigateway-any-method": {
        "parameters": [
          {
            "name": "proxy",
            "in": "path",
            "required": true,
            "schema": {
              "type": "string"
            }
          }
        ],
        "responses": {
          "200": {
            "description": "200 response",
            "content": {}
          }
        },
        "security": [
          {
            "api_key": []
          }
        ],
        "x-amazon-apigateway-integration": {
          "type": "http_proxy",
          "connectionId": "${stageVariables.VPCLink}",
          "httpMethod": "ANY",
          "uri": "https://${stageVariables.genericApiHostname}/v1/checkin/{proxy}",
          "responses": {
            "default": {
              "statusCode": "200",
              "responseTemplates": {
                "application/json": "#set($allowOrigins = $stageVariables.allowOrigins.split(\",\"))\n#set($currentHeader = $input.params().header.get(\"Origin\"))\n#foreach( $allowOrigin in $allowOrigins )\n#if ( $allowOrigin == $currentHeader )\n#set($context.responseOverride.header[\"Access-Control-Allow-Origin\"] = \"$currentHeader\")\n#set($flag = true)\n#end\n#end\n#if ($flag == \"\")\n#set($context.responseOverride.header[\"Access-Control-Allow-Origin\"] = \"https://www.vivaaerobus.com\")\n#end\n#set($context.responseOverride.header[\"Access-Control-Expose-Headers\"] = \"X-Correlation-ID,X-ApiVersion\")\n$input.body"
              }
            }
          },
          "requestParameters": {
            "integration.request.path.proxy": "method.request.path.proxy"
          },
          "passthroughBehavior": "when_no_match",
          "connectionType": "VPC_LINK",
          "cacheNamespace": "fhjfgj",
          "cacheKeyParameters": [
            "method.request.path.proxy"
          ]
        }
      }
    },
    "/v1/admin": {
      "options": {
        "parameters": [
          {
            "name": "proxy",
            "in": "path",
            "required": true,
            "schema": {
              "type": "string"
            }
          }
        ],
        "responses": {
          "200": {
            "description": "200 response",
            "content": {
              "application/json": {
                "schema": {
                  "$ref": "#/components/schemas/Empty"
                }
              }
            }
          }
        },
        "x-amazon-apigateway-integration": {
          "type": "http_proxy",
          "connectionId": "${stageVariables.VPCLink}",
          "httpMethod": "OPTIONS",
          "uri": "https://${stageVariables.genericApiHostname}/v1/admin",
          "responses": {
            "default": {
              "statusCode": "200"
            }
          },
          "requestParameters": {
            "integration.request.path.proxy": "method.request.path.proxy"
          },
          "passthroughBehavior": "when_no_match",
          "connectionType": "VPC_LINK",
          "cacheNamespace": "xaoy9a",
          "cacheKeyParameters": [
            "method.request.path.proxy"
          ]
        }
      },
      "x-amazon-apigateway-any-method": {
        "parameters": [
          {
            "name": "proxy",
            "in": "path",
            "required": true,
            "schema": {
              "type": "string"
            }
          }
        ],
        "x-amazon-apigateway-integration": {
          "type": "http_proxy",
          "connectionId": "${stageVariables.VPCLink}",
          "httpMethod": "ANY",
          "uri": "https://${stageVariables.genericApiHostname}/v1/admin",
          "responses": {
            "default": {
              "statusCode": "200"
            }
          },
          "requestParameters": {
            "integration.request.path.proxy": "method.request.path.proxy"
          },
          "passthroughBehavior": "when_no_match",
          "connectionType": "VPC_LINK",
          "cacheNamespace": "xaoy9a",
          "cacheKeyParameters": [
            "method.request.path.proxy"
          ]
        }
      }
    },
    "/v1/swagger/{proxy+}": {
      "options": {
        "responses": {
          "200": {
            "description": "200 response",
            "headers": {
              "Access-Control-Allow-Origin": {
                "schema": {
                  "type": "string"
                }
              },
              "Access-Control-Allow-Methods": {
                "schema": {
                  "type": "string"
                }
              },
              "Access-Control-Allow-Headers": {
                "schema": {
                  "type": "string"
                }
              }
            },
            "content": {
              "application/json": {
                "schema": {
                  "$ref": "#/components/schemas/Empty"
                }
              }
            }
          }
        },
        "x-amazon-apigateway-integration": {
          "type": "mock",
          "responses": {
            "default": {
              "statusCode": "200",
              "responseParameters": {
                "method.response.header.Access-Control-Allow-Methods": "'DELETE,GET,HEAD,OPTIONS,PATCH,POST,PUT'",
                "method.response.header.Access-Control-Allow-Headers": "'Content-Type,Authorization,X-Amz-Date,X-Api-Key,X-Amz-Security-Token'",
                "method.response.header.Access-Control-Allow-Origin": "'*'"
              }
            }
          },
          "requestTemplates": {
            "application/json": "{\"statusCode\": 200}"
          },
          "passthroughBehavior": "when_no_match"
        }
      },
      "x-amazon-apigateway-any-method": {
        "parameters": [
          {
            "name": "proxy",
            "in": "path",
            "required": true,
            "schema": {
              "type": "string"
            }
          }
        ],
        "responses": {
          "200": {
            "description": "200 response",
            "content": {}
          }
        },
        "x-amazon-apigateway-integration": {
          "type": "http_proxy",
          "connectionId": "${stageVariables.VPCLink}",
          "httpMethod": "ANY",
          "uri": "https://${stageVariables.genericApiHostname}/v1/swagger/{proxy}",
          "responses": {
            "default": {
              "statusCode": "200",
              "responseTemplates": {
                "application/json": "#set($allowOrigins = $stageVariables.allowOrigins.split(\",\"))\n#set($currentHeader = $input.params().header.get(\"Origin\"))\n#foreach( $allowOrigin in $allowOrigins )\n#if ( $allowOrigin == $currentHeader )\n#set($context.responseOverride.header[\"Access-Control-Allow-Origin\"] = \"$currentHeader\")\n#set($flag = true)\n#end\n#end\n#if ($flag == \"\")\n#set($context.responseOverride.header[\"Access-Control-Allow-Origin\"] = \"https://www.vivaaerobus.com\")\n#end\n#set($context.responseOverride.header[\"Access-Control-Expose-Headers\"] = \"X-Correlation-ID,X-ApiVersion\")\n$input.body"
              }
            }
          },
          "requestParameters": {
            "integration.request.path.proxy": "method.request.path.proxy"
          },
          "passthroughBehavior": "when_no_match",
          "connectionType": "VPC_LINK",
          "cacheNamespace": "zbgkow",
          "cacheKeyParameters": [
            "method.request.path.proxy"
          ]
        }
      }
    },
    "/v1/diagnostic/{proxy+}": {
      "options": {
        "parameters": [
          {
            "name": "proxy",
            "in": "path",
            "required": true,
            "schema": {
              "type": "string"
            }
          }
        ],
        "responses": {
          "200": {
            "description": "200 response",
            "content": {
              "application/json": {
                "schema": {
                  "$ref": "#/components/schemas/Empty"
                }
              }
            }
          }
        },
        "x-amazon-apigateway-integration": {
          "type": "http_proxy",
          "connectionId": "${stageVariables.VPCLink}",
          "httpMethod": "OPTIONS",
          "uri": "https://${stageVariables.genericApiHostname}/v1/diagnostic/{proxy}",
          "responses": {
            "default": {
              "statusCode": "200"
            }
          },
          "requestParameters": {
            "integration.request.path.proxy": "method.request.path.proxy"
          },
          "passthroughBehavior": "when_no_match",
          "connectionType": "VPC_LINK",
          "cacheNamespace": "gfdfer",
          "cacheKeyParameters": [
            "method.request.path.proxy"
          ]
        }
      },
      "x-amazon-apigateway-any-method": {
        "parameters": [
          {
            "name": "proxy",
            "in": "path",
            "required": true,
            "schema": {
              "type": "string"
            }
          }
        ],
        "responses": {
          "200": {
            "description": "200 response",
            "content": {}
          }
        },
        "x-amazon-apigateway-integration": {
          "type": "http_proxy",
          "connectionId": "${stageVariables.VPCLink}",
          "httpMethod": "ANY",
          "uri": "https://${stageVariables.genericApiHostname}/v1/diagnostic/{proxy}",
          "responses": {
            "default": {
              "statusCode": "200",
              "responseTemplates": {
                "application/json": "#set($allowOrigins = $stageVariables.allowOrigins.split(\",\"))\n#set($currentHeader = $input.params().header.get(\"Origin\"))\n#foreach( $allowOrigin in $allowOrigins )\n#if ( $allowOrigin == $currentHeader )\n#set($context.responseOverride.header[\"Access-Control-Allow-Origin\"] = \"$currentHeader\")\n#set($flag = true)\n#end\n#end\n#if ($flag == \"\")\n#set($context.responseOverride.header[\"Access-Control-Allow-Origin\"] = \"https://www.vivaaerobus.com\")\n#end\n#set($context.responseOverride.header[\"Access-Control-Expose-Headers\"] = \"X-Correlation-ID,X-ApiVersion\")\n$input.body"
              }
            }
          },
          "requestParameters": {
            "integration.request.path.proxy": "method.request.path.proxy"
          },
          "passthroughBehavior": "when_no_match",
          "connectionType": "VPC_LINK",
          "cacheNamespace": "gfdfer",
          "cacheKeyParameters": [
            "method.request.path.proxy"
          ]
        }
      }
    },
    "/v1/integration": {
      "options": {
        "responses": {
          "200": {
            "description": "200 response",
            "headers": {
              "Access-Control-Allow-Origin": {
                "schema": {
                  "type": "string"
                }
              },
              "Access-Control-Allow-Methods": {
                "schema": {
                  "type": "string"
                }
              },
              "Access-Control-Allow-Headers": {
                "schema": {
                  "type": "string"
                }
              }
            },
            "content": {
              "application/json": {
                "schema": {
                  "$ref": "#/components/schemas/Empty"
                }
              }
            }
          }
        },
        "x-amazon-apigateway-integration": {
          "type": "mock",
          "responses": {
            "default": {
              "statusCode": "200",
              "responseParameters": {
                "method.response.header.Access-Control-Allow-Methods": "'DELETE,GET,HEAD,OPTIONS,PATCH,POST,PUT'",
                "method.response.header.Access-Control-Allow-Headers": "'Content-Type,Authorization,X-Amz-Date,X-Api-Key,X-Amz-Security-Token'",
                "method.response.header.Access-Control-Allow-Origin": "'*'"
              }
            }
          },
          "requestTemplates": {
            "application/json": "{\"statusCode\": 200}"
          },
          "passthroughBehavior": "when_no_match"
        }
      }
    },
    "/v1/checkin": {
      "options": {
        "parameters": [
          {
            "name": "proxy",
            "in": "path",
            "required": true,
            "schema": {
              "type": "string"
            }
          }
        ],
        "responses": {
          "200": {
            "description": "200 response",
            "content": {
              "application/json": {
                "schema": {
                  "$ref": "#/components/schemas/Empty"
                }
              }
            }
          }
        },
        "x-amazon-apigateway-integration": {
          "type": "http_proxy",
          "connectionId": "${stageVariables.VPCLink}",
          "httpMethod": "OPTIONS",
          "uri": "https://${stageVariables.genericApiHostname}/v1/checkin",
          "responses": {
            "default": {
              "statusCode": "200"
            }
          },
          "requestParameters": {
            "integration.request.path.proxy": "method.request.path.proxy"
          },
          "passthroughBehavior": "when_no_match",
          "connectionType": "VPC_LINK",
          "cacheNamespace": "fhjfgj",
          "cacheKeyParameters": [
            "method.request.path.proxy"
          ]
        }
      },
      "x-amazon-apigateway-any-method": {
        "parameters": [
          {
            "name": "proxy",
            "in": "path",
            "required": true,
            "schema": {
              "type": "string"
            }
          }
        ],
        "responses": {
          "200": {
            "description": "200 response",
            "content": {}
          }
        },
        "security": [
          {
            "api_key": []
          }
        ],
        "x-amazon-apigateway-integration": {
          "type": "http_proxy",
          "connectionId": "${stageVariables.VPCLink}",
          "httpMethod": "ANY",
          "uri": "https://${stageVariables.genericApiHostname}/v1/checkin",
          "responses": {
            "default": {
              "statusCode": "200",
              "responseTemplates": {
                "application/json": "#set($allowOrigins = $stageVariables.allowOrigins.split(\",\"))\n#set($currentHeader = $input.params().header.get(\"Origin\"))\n#foreach( $allowOrigin in $allowOrigins )\n#if ( $allowOrigin == $currentHeader )\n#set($context.responseOverride.header[\"Access-Control-Allow-Origin\"] = \"$currentHeader\")\n#set($flag = true)\n#end\n#end\n#if ($flag == \"\")\n#set($context.responseOverride.header[\"Access-Control-Allow-Origin\"] = \"https://www.vivaaerobus.com\")\n#end\n#set($context.responseOverride.header[\"Access-Control-Expose-Headers\"] = \"X-Correlation-ID,X-ApiVersion\")\n$input.body"
              }
            }
          },
          "requestParameters": {
            "integration.request.path.proxy": "method.request.path.proxy"
          },
          "passthroughBehavior": "when_no_match",
          "connectionType": "VPC_LINK",
          "cacheNamespace": "fhjfgj",
          "cacheKeyParameters": [
            "method.request.path.proxy"
          ]
        }
      }
    },
    "/v1/account/{proxy+}": {
      "options": {
        "parameters": [
          {
            "name": "proxy",
            "in": "path",
            "required": true,
            "schema": {
              "type": "string"
            }
          }
        ],
        "responses": {
          "200": {
            "description": "200 response",
            "content": {
              "application/json": {
                "schema": {
                  "$ref": "#/components/schemas/Empty"
                }
              }
            }
          }
        },
        "x-amazon-apigateway-integration": {
          "type": "http_proxy",
          "connectionId": "${stageVariables.VPCLink}",
          "httpMethod": "OPTIONS",
          "uri": "https://${stageVariables.genericApiHostname}/v1/account/{proxy}",
          "responses": {
            "default": {
              "statusCode": "200"
            }
          },
          "requestParameters": {
            "integration.request.path.proxy": "method.request.path.proxy"
          },
          "passthroughBehavior": "when_no_match",
          "connectionType": "VPC_LINK",
          "cacheNamespace": "zbgkow",
          "cacheKeyParameters": [
            "method.request.path.proxy"
          ]
        }
      },
      "x-amazon-apigateway-any-method": {
        "parameters": [
          {
            "name": "proxy",
            "in": "path",
            "required": true,
            "schema": {
              "type": "string"
            }
          }
        ],
        "responses": {
          "200": {
            "description": "200 response",
            "content": {}
          }
        },
        "security": [
          {
            "api_key": []
          }
        ],
        "x-amazon-apigateway-integration": {
          "type": "http_proxy",
          "connectionId": "${stageVariables.VPCLink}",
          "httpMethod": "ANY",
          "uri": "https://${stageVariables.genericApiHostname}/v1/account/{proxy}",
          "responses": {
            "default": {
              "statusCode": "200",
              "responseTemplates": {
                "application/json": "#set($allowOrigins = $stageVariables.allowOrigins.split(\",\"))\n#set($currentHeader = $input.params().header.get(\"Origin\"))\n#foreach( $allowOrigin in $allowOrigins )\n#if ( $allowOrigin == $currentHeader )\n#set($context.responseOverride.header[\"Access-Control-Allow-Origin\"] = \"$currentHeader\")\n#set($flag = true)\n#end\n#end\n#if ($flag == \"\")\n#set($context.responseOverride.header[\"Access-Control-Allow-Origin\"] = \"https://www.vivaaerobus.com\")\n#end\n#set($context.responseOverride.header[\"Access-Control-Expose-Headers\"] = \"X-Correlation-ID,X-ApiVersion\")\n$input.body"
              }
            }
          },
          "requestParameters": {
            "integration.request.path.proxy": "method.request.path.proxy"
          },
          "passthroughBehavior": "when_no_match",
          "connectionType": "VPC_LINK",
          "cacheNamespace": "zbgkow",
          "cacheKeyParameters": [
            "method.request.path.proxy"
          ]
        }
      }
    },
    "/v1/tools/{proxy+}": {
      "options": {
        "parameters": [
          {
            "name": "proxy",
            "in": "path",
            "required": true,
            "schema": {
              "type": "string"
            }
          }
        ],
        "responses": {
          "200": {
            "description": "200 response",
            "content": {
              "application/json": {
                "schema": {
                  "$ref": "#/components/schemas/Empty"
                }
              }
            }
          }
        },
        "x-amazon-apigateway-integration": {
          "type": "http_proxy",
          "connectionId": "${stageVariables.VPCLink}",
          "httpMethod": "OPTIONS",
          "uri": "https://${stageVariables.genericApiHostname}/v1/tools/{proxy}",
          "responses": {
            "default": {
              "statusCode": "200"
            }
          },
          "requestParameters": {
            "integration.request.path.proxy": "method.request.path.proxy"
          },
          "passthroughBehavior": "when_no_match",
          "connectionType": "VPC_LINK",
          "cacheNamespace": "fsdsfs",
          "cacheKeyParameters": [
            "method.request.path.proxy"
          ]
        }
      },
      "x-amazon-apigateway-any-method": {
        "parameters": [
          {
            "name": "proxy",
            "in": "path",
            "required": true,
            "schema": {
              "type": "string"
            }
          }
        ],
        "x-amazon-apigateway-integration": {
          "type": "http_proxy",
          "connectionId": "${stageVariables.VPCLink}",
          "httpMethod": "ANY",
          "uri": "https://${stageVariables.genericApiHostname}/v1/tools/{proxy}",
          "responses": {
            "default": {
              "statusCode": "200",
              "responseTemplates": {
                "application/json": "#set($allowOrigins = $stageVariables.allowOrigins.split(\",\"))\n#set($currentHeader = $input.params().header.get(\"Origin\"))\n#foreach( $allowOrigin in $allowOrigins )\n#if ( $allowOrigin == $currentHeader )\n#set($context.responseOverride.header[\"Access-Control-Allow-Origin\"] = \"$currentHeader\")\n#set($flag = true)\n#end\n#end\n#if ($flag == \"\")\n#set($context.responseOverride.header[\"Access-Control-Allow-Origin\"] = \"https://www.vivaaerobus.com\")\n#end\n#set($context.responseOverride.header[\"Access-Control-Expose-Headers\"] = \"X-Correlation-ID,X-ApiVersion\")\n$input.body"
              }
            }
          },
          "requestParameters": {
            "integration.request.path.proxy": "method.request.path.proxy"
          },
          "passthroughBehavior": "when_no_match",
          "connectionType": "VPC_LINK",
          "cacheNamespace": "fsdsfs",
          "cacheKeyParameters": [
            "method.request.path.proxy"
          ]
        }
      }
    },
    "/v1/account": {
      "options": {
        "parameters": [
          {
            "name": "proxy",
            "in": "path",
            "required": true,
            "schema": {
              "type": "string"
            }
          }
        ],
        "responses": {
          "200": {
            "description": "200 response",
            "content": {
              "application/json": {
                "schema": {
                  "$ref": "#/components/schemas/Empty"
                }
              }
            }
          }
        },
        "x-amazon-apigateway-integration": {
          "type": "http_proxy",
          "connectionId": "${stageVariables.VPCLink}",
          "httpMethod": "OPTIONS",
          "uri": "https://${stageVariables.genericApiHostname}/v1/account",
          "responses": {
            "default": {
              "statusCode": "200"
            }
          },
          "requestParameters": {
            "integration.request.path.proxy": "method.request.path.proxy"
          },
          "passthroughBehavior": "when_no_match",
          "connectionType": "VPC_LINK",
          "cacheNamespace": "zbgkow",
          "cacheKeyParameters": [
            "method.request.path.proxy"
          ]
        }
      },
      "x-amazon-apigateway-any-method": {
        "parameters": [
          {
            "name": "proxy",
            "in": "path",
            "required": true,
            "schema": {
              "type": "string"
            }
          }
        ],
        "responses": {
          "200": {
            "description": "200 response",
            "content": {}
          }
        },
        "security": [
          {
            "api_key": []
          }
        ],
        "x-amazon-apigateway-integration": {
          "type": "http_proxy",
          "connectionId": "${stageVariables.VPCLink}",
          "httpMethod": "ANY",
          "uri": "https://${stageVariables.genericApiHostname}/v1/account",
          "responses": {
            "default": {
              "statusCode": "200",
              "responseTemplates": {
                "application/json": "#set($allowOrigins = $stageVariables.allowOrigins.split(\",\"))\n#set($currentHeader = $input.params().header.get(\"Origin\"))\n#foreach( $allowOrigin in $allowOrigins )\n#if ( $allowOrigin == $currentHeader )\n#set($context.responseOverride.header[\"Access-Control-Allow-Origin\"] = \"$currentHeader\")\n#set($flag = true)\n#end\n#end\n#if ($flag == \"\")\n#set($context.responseOverride.header[\"Access-Control-Allow-Origin\"] = \"https://www.vivaaerobus.com\")\n#end\n#set($context.responseOverride.header[\"Access-Control-Expose-Headers\"] = \"X-Correlation-ID,X-ApiVersion\")\n$input.body"
              }
            }
          },
          "requestParameters": {
            "integration.request.path.proxy": "method.request.path.proxy"
          },
          "passthroughBehavior": "when_no_match",
          "connectionType": "VPC_LINK",
          "cacheNamespace": "zbgkow",
          "cacheKeyParameters": [
            "method.request.path.proxy"
          ]
        }
      }
    },
    "/v1/booking": {
      "options": {
        "parameters": [
          {
            "name": "proxy",
            "in": "path",
            "required": true,
            "schema": {
              "type": "string"
            }
          }
        ],
        "responses": {
          "200": {
            "description": "200 response",
            "content": {
              "application/json": {
                "schema": {
                  "$ref": "#/components/schemas/Empty"
                }
              }
            }
          }
        },
        "x-amazon-apigateway-integration": {
          "type": "http_proxy",
          "connectionId": "${stageVariables.VPCLink}",
          "httpMethod": "OPTIONS",
          "uri": "https://${stageVariables.genericApiHostname}/v1/booking",
          "responses": {
            "default": {
              "statusCode": "200"
            }
          },
          "requestParameters": {
            "integration.request.path.proxy": "method.request.path.proxy"
          },
          "passthroughBehavior": "when_no_match",
          "connectionType": "VPC_LINK",
          "cacheNamespace": "asdfetw",
          "cacheKeyParameters": [
            "method.request.path.proxy"
          ]
        }
      },
      "x-amazon-apigateway-any-method": {
        "parameters": [
          {
            "name": "proxy",
            "in": "path",
            "required": true,
            "schema": {
              "type": "string"
            }
          }
        ],
        "responses": {
          "200": {
            "description": "200 response",
            "content": {}
          }
        },
        "security": [
          {
            "api_key": []
          }
        ],
        "x-amazon-apigateway-integration": {
          "type": "http_proxy",
          "connectionId": "${stageVariables.VPCLink}",
          "httpMethod": "ANY",
          "uri": "https://${stageVariables.genericApiHostname}/v1/booking",
          "responses": {
            "default": {
              "statusCode": "200",
              "responseTemplates": {
                "application/json": "#set($allowOrigins = $stageVariables.allowOrigins.split(\",\"))\n#set($currentHeader = $input.params().header.get(\"Origin\"))\n#foreach( $allowOrigin in $allowOrigins )\n#if ( $allowOrigin == $currentHeader )\n#set($context.responseOverride.header[\"Access-Control-Allow-Origin\"] = \"$currentHeader\")\n#set($flag = true)\n#end\n#end\n#if ($flag == \"\")\n#set($context.responseOverride.header[\"Access-Control-Allow-Origin\"] = \"https://www.vivaaerobus.com\")\n#end\n#set($context.responseOverride.header[\"Access-Control-Expose-Headers\"] = \"X-Correlation-ID,X-ApiVersion\")\n$input.body"
              }
            }
          },
          "requestParameters": {
            "integration.request.path.proxy": "method.request.path.proxy"
          },
          "passthroughBehavior": "when_no_match",
          "connectionType": "VPC_LINK",
          "cacheNamespace": "asdfetw",
          "cacheKeyParameters": [
            "method.request.path.proxy"
          ]
        }
      }
    },
    "/v1/availability/{proxy+}": {
      "options": {
        "parameters": [
          {
            "name": "proxy",
            "in": "path",
            "required": true,
            "schema": {
              "type": "string"
            }
          }
        ],
        "responses": {
          "200": {
            "description": "200 response",
            "content": {
              "application/json": {
                "schema": {
                  "$ref": "#/components/schemas/Empty"
                }
              }
            }
          }
        },
        "x-amazon-apigateway-integration": {
          "type": "http_proxy",
          "connectionId": "${stageVariables.VPCLink}",
          "httpMethod": "OPTIONS",
          "uri": "https://${stageVariables.genericApiHostname}/v1/availability/{proxy}",
          "responses": {
            "default": {
              "statusCode": "200"
            }
          },
          "requestParameters": {
            "integration.request.path.proxy": "method.request.path.proxy"
          },
          "passthroughBehavior": "when_no_match",
          "connectionType": "VPC_LINK",
          "cacheNamespace": "oiuynf",
          "cacheKeyParameters": [
            "method.request.path.proxy"
          ]
        }
      },
      "x-amazon-apigateway-any-method": {
        "parameters": [
          {
            "name": "proxy",
            "in": "path",
            "required": true,
            "schema": {
              "type": "string"
            }
          }
        ],
        "responses": {
          "200": {
            "description": "200 response",
            "content": {}
          }
        },
        "security": [
          {
            "api_key": []
          }
        ],
        "x-amazon-apigateway-integration": {
          "type": "http_proxy",
          "connectionId": "${stageVariables.VPCLink}",
          "httpMethod": "ANY",
          "uri": "https://${stageVariables.genericApiHostname}/v1/availability/{proxy}",
          "responses": {
            "default": {
              "statusCode": "200",
              "responseTemplates": {
                "application/json": "#set($allowOrigins = $stageVariables.allowOrigins.split(\",\"))\n#set($currentHeader = $input.params().header.get(\"Origin\"))\n#foreach( $allowOrigin in $allowOrigins )\n#if ( $allowOrigin == $currentHeader )\n#set($context.responseOverride.header[\"Access-Control-Allow-Origin\"] = \"$currentHeader\")\n#set($flag = true)\n#end\n#end\n#if ($flag == \"\")\n#set($context.responseOverride.header[\"Access-Control-Allow-Origin\"] = \"https://www.vivaaerobus.com\")\n#end\n#set($context.responseOverride.header[\"Access-Control-Expose-Headers\"] = \"X-Correlation-ID,X-ApiVersion\")\n$input.body"
              }
            }
          },
          "requestParameters": {
            "integration.request.path.proxy": "method.request.path.proxy"
          },
          "passthroughBehavior": "when_no_match",
          "connectionType": "VPC_LINK",
          "cacheNamespace": "oiuynf",
          "cacheKeyParameters": [
            "method.request.path.proxy"
          ]
        }
      }
    },
    "/v1/resources/{proxy+}": {
      "options": {
        "parameters": [
          {
            "name": "proxy",
            "in": "path",
            "required": true,
            "schema": {
              "type": "string"
            }
          }
        ],
        "responses": {
          "200": {
            "description": "200 response",
            "content": {
              "application/json": {
                "schema": {
                  "$ref": "#/components/schemas/Empty"
                }
              }
            }
          }
        },
        "x-amazon-apigateway-integration": {
          "type": "http_proxy",
          "connectionId": "${stageVariables.VPCLink}",
          "httpMethod": "OPTIONS",
          "uri": "https://${stageVariables.genericApiHostname}/v1/resources/{proxy}",
          "responses": {
            "default": {
              "statusCode": "200"
            }
          },
          "requestParameters": {
            "integration.request.path.proxy": "method.request.path.proxy"
          },
          "passthroughBehavior": "when_no_match",
          "connectionType": "VPC_LINK",
          "cacheNamespace": "reyerr",
          "cacheKeyParameters": [
            "method.request.path.proxy"
          ]
        }
      },
      "x-amazon-apigateway-any-method": {
        "parameters": [
          {
            "name": "proxy",
            "in": "path",
            "required": true,
            "schema": {
              "type": "string"
            }
          }
        ],
        "responses": {
          "200": {
            "description": "200 response",
            "content": {}
          }
        },
        "security": [
          {
            "api_key": []
          }
        ],
        "x-amazon-apigateway-integration": {
          "type": "http_proxy",
          "connectionId": "${stageVariables.VPCLink}",
          "httpMethod": "ANY",
          "uri": "https://${stageVariables.genericApiHostname}/v1/resources/{proxy}",
          "responses": {
            "default": {
              "statusCode": "200",
              "responseTemplates": {
                "application/json": "#set($allowOrigins = $stageVariables.allowOrigins.split(\",\"))\n#set($currentHeader = $input.params().header.get(\"Origin\"))\n#foreach( $allowOrigin in $allowOrigins )\n#if ( $allowOrigin == $currentHeader )\n#set($context.responseOverride.header[\"Access-Control-Allow-Origin\"] = \"$currentHeader\")\n#set($flag = true)\n#end\n#end\n#if ($flag == \"\")\n#set($context.responseOverride.header[\"Access-Control-Allow-Origin\"] = \"https://www.vivaaerobus.com\")\n#end\n#set($context.responseOverride.header[\"Access-Control-Expose-Headers\"] = \"X-Correlation-ID,X-ApiVersion\")\n$input.body"
              }
            }
          },
          "requestParameters": {
            "integration.request.path.proxy": "method.request.path.proxy"
          },
          "passthroughBehavior": "when_no_match",
          "connectionType": "VPC_LINK",
          "cacheNamespace": "reyerr",
          "cacheKeyParameters": [
            "method.request.path.proxy"
          ]
        }
      }
    },
    "/v1/payment/{proxy+}": {
      "options": {
        "parameters": [
          {
            "name": "proxy",
            "in": "path",
            "required": true,
            "schema": {
              "type": "string"
            }
          }
        ],
        "responses": {
          "200": {
            "description": "200 response",
            "content": {
              "application/json": {
                "schema": {
                  "$ref": "#/components/schemas/Empty"
                }
              }
            }
          }
        },
        "x-amazon-apigateway-integration": {
          "type": "http_proxy",
          "connectionId": "${stageVariables.VPCLink}",
          "httpMethod": "OPTIONS",
          "uri": "https://${stageVariables.genericApiHostname}/v1/payment/{proxy}",
          "responses": {
            "default": {
              "statusCode": "200"
            }
          },
          "requestParameters": {
            "integration.request.path.proxy": "method.request.path.proxy"
          },
          "passthroughBehavior": "when_no_match",
          "connectionType": "VPC_LINK",
          "cacheNamespace": "gsgdgd",
          "cacheKeyParameters": [
            "method.request.path.proxy"
          ]
        }
      },
      "x-amazon-apigateway-any-method": {
        "parameters": [
          {
            "name": "proxy",
            "in": "path",
            "required": true,
            "schema": {
              "type": "string"
            }
          }
        ],
        "responses": {
          "200": {
            "description": "200 response",
            "content": {}
          }
        },
        "security": [
          {
            "api_key": []
          }
        ],
        "x-amazon-apigateway-integration": {
          "type": "http_proxy",
          "connectionId": "${stageVariables.VPCLink}",
          "httpMethod": "ANY",
          "uri": "https://${stageVariables.genericApiHostname}/v1/payment/{proxy}",
          "responses": {
            "default": {
              "statusCode": "200",
              "responseTemplates": {
                "application/json": "#set($allowOrigins = $stageVariables.allowOrigins.split(\",\"))\n#set($currentHeader = $input.params().header.get(\"Origin\"))\n#foreach( $allowOrigin in $allowOrigins )\n#if ( $allowOrigin == $currentHeader )\n#set($context.responseOverride.header[\"Access-Control-Allow-Origin\"] = \"$currentHeader\")\n#set($flag = true)\n#end\n#end\n#if ($flag == \"\")\n#set($context.responseOverride.header[\"Access-Control-Allow-Origin\"] = \"https://www.vivaaerobus.com\")\n#end\n#set($context.responseOverride.header[\"Access-Control-Expose-Headers\"] = \"X-Correlation-ID,X-ApiVersion\")\n$input.body"
              }
            }
          },
          "requestParameters": {
            "integration.request.path.proxy": "method.request.path.proxy"
          },
          "passthroughBehavior": "when_no_match",
          "connectionType": "VPC_LINK",
          "cacheNamespace": "gsgdgd",
          "cacheKeyParameters": [
            "method.request.path.proxy"
          ]
        }
      }
    },
    "/v1/diagnostic": {
      "options": {
        "parameters": [
          {
            "name": "proxy",
            "in": "path",
            "required": true,
            "schema": {
              "type": "string"
            }
          }
        ],
        "responses": {
          "200": {
            "description": "200 response",
            "content": {
              "application/json": {
                "schema": {
                  "$ref": "#/components/schemas/Empty"
                }
              }
            }
          }
        },
        "x-amazon-apigateway-integration": {
          "type": "http_proxy",
          "connectionId": "${stageVariables.VPCLink}",
          "httpMethod": "OPTIONS",
          "uri": "https://${stageVariables.genericApiHostname}/v1/diagnostic",
          "responses": {
            "default": {
              "statusCode": "200"
            }
          },
          "requestParameters": {
            "integration.request.path.proxy": "method.request.path.proxy"
          },
          "passthroughBehavior": "when_no_match",
          "connectionType": "VPC_LINK",
          "cacheNamespace": "gfdfer",
          "cacheKeyParameters": [
            "method.request.path.proxy"
          ]
        }
      },
      "x-amazon-apigateway-any-method": {
        "parameters": [
          {
            "name": "proxy",
            "in": "path",
            "required": true,
            "schema": {
              "type": "string"
            }
          }
        ],
        "responses": {
          "200": {
            "description": "200 response",
            "content": {}
          }
        },
        "x-amazon-apigateway-integration": {
          "type": "http_proxy",
          "connectionId": "${stageVariables.VPCLink}",
          "httpMethod": "ANY",
          "uri": "https://${stageVariables.genericApiHostname}/v1/diagnostic",
          "responses": {
            "default": {
              "statusCode": "200",
              "responseTemplates": {
                "application/json": "#set($allowOrigins = $stageVariables.allowOrigins.split(\",\"))\n#set($currentHeader = $input.params().header.get(\"Origin\"))\n#foreach( $allowOrigin in $allowOrigins )\n#if ( $allowOrigin == $currentHeader )\n#set($context.responseOverride.header[\"Access-Control-Allow-Origin\"] = \"$currentHeader\")\n#set($flag = true)\n#end\n#end\n#if ($flag == \"\")\n#set($context.responseOverride.header[\"Access-Control-Allow-Origin\"] = \"https://www.vivaaerobus.com\")\n#end\n#set($context.responseOverride.header[\"Access-Control-Expose-Headers\"] = \"X-Correlation-ID,X-ApiVersion\")\n$input.body"
              }
            }
          },
          "requestParameters": {
            "integration.request.path.proxy": "method.request.path.proxy"
          },
          "passthroughBehavior": "when_no_match",
          "connectionType": "VPC_LINK",
          "cacheNamespace": "gfdfer",
          "cacheKeyParameters": [
            "method.request.path.proxy"
          ]
        }
      }
    },
    "/v1/availability": {
      "options": {
        "parameters": [
          {
            "name": "proxy",
            "in": "path",
            "required": true,
            "schema": {
              "type": "string"
            }
          }
        ],
        "responses": {
          "200": {
            "description": "200 response",
            "content": {
              "application/json": {
                "schema": {
                  "$ref": "#/components/schemas/Empty"
                }
              }
            }
          }
        },
        "x-amazon-apigateway-integration": {
          "type": "http_proxy",
          "connectionId": "${stageVariables.VPCLink}",
          "httpMethod": "OPTIONS",
          "uri": "https://${stageVariables.genericApiHostname}/v1/availability",
          "responses": {
            "default": {
              "statusCode": "200"
            }
          },
          "requestParameters": {
            "integration.request.path.proxy": "method.request.path.proxy"
          },
          "passthroughBehavior": "when_no_match",
          "connectionType": "VPC_LINK",
          "cacheNamespace": "oiuynf",
          "cacheKeyParameters": [
            "method.request.path.proxy"
          ]
        }
      },
      "x-amazon-apigateway-any-method": {
        "parameters": [
          {
            "name": "proxy",
            "in": "path",
            "required": true,
            "schema": {
              "type": "string"
            }
          }
        ],
        "responses": {
          "200": {
            "description": "200 response",
            "content": {}
          }
        },
        "security": [
          {
            "api_key": []
          }
        ],
        "x-amazon-apigateway-integration": {
          "type": "http_proxy",
          "connectionId": "${stageVariables.VPCLink}",
          "httpMethod": "ANY",
          "uri": "https://${stageVariables.genericApiHostname}/v1/availability",
          "responses": {
            "default": {
              "statusCode": "200",
              "responseTemplates": {
                "application/json": "#set($allowOrigins = $stageVariables.allowOrigins.split(\",\"))\n#set($currentHeader = $input.params().header.get(\"Origin\"))\n#foreach( $allowOrigin in $allowOrigins )\n#if ( $allowOrigin == $currentHeader )\n#set($context.responseOverride.header[\"Access-Control-Allow-Origin\"] = \"$currentHeader\")\n#set($flag = true)\n#end\n#end\n#if ($flag == \"\")\n#set($context.responseOverride.header[\"Access-Control-Allow-Origin\"] = \"https://www.vivaaerobus.com\")\n#end\n#set($context.responseOverride.header[\"Access-Control-Expose-Headers\"] = \"X-Correlation-ID,X-ApiVersion\")\n$input.body"
              }
            }
          },
          "requestParameters": {
            "integration.request.path.proxy": "method.request.path.proxy"
          },
          "passthroughBehavior": "when_no_match",
          "connectionType": "VPC_LINK",
          "cacheNamespace": "oiuynf",
          "cacheKeyParameters": [
            "method.request.path.proxy"
          ]
        }
      }
    },
    "/v1/admin/{proxy+}": {
      "options": {
        "parameters": [
          {
            "name": "proxy",
            "in": "path",
            "required": true,
            "schema": {
              "type": "string"
            }
          }
        ],
        "responses": {
          "200": {
            "description": "200 response",
            "content": {
              "application/json": {
                "schema": {
                  "$ref": "#/components/schemas/Empty"
                }
              }
            }
          }
        },
        "x-amazon-apigateway-integration": {
          "type": "http_proxy",
          "connectionId": "${stageVariables.VPCLink}",
          "httpMethod": "OPTIONS",
          "uri": "https://${stageVariables.genericApiHostname}/v1/admin/{proxy}",
          "responses": {
            "default": {
              "statusCode": "200"
            }
          },
          "requestParameters": {
            "integration.request.path.proxy": "method.request.path.proxy"
          },
          "passthroughBehavior": "when_no_match",
          "connectionType": "VPC_LINK",
          "cacheNamespace": "xaoy9a",
          "cacheKeyParameters": [
            "method.request.path.proxy"
          ]
        }
      },
      "x-amazon-apigateway-any-method": {
        "parameters": [
          {
            "name": "proxy",
            "in": "path",
            "required": true,
            "schema": {
              "type": "string"
            }
          }
        ],
        "x-amazon-apigateway-integration": {
          "type": "http_proxy",
          "connectionId": "${stageVariables.VPCLink}",
          "httpMethod": "ANY",
          "uri": "https://${stageVariables.genericApiHostname}/v1/admin/{proxy}",
          "responses": {
            "default": {
              "statusCode": "200"
            }
          },
          "requestParameters": {
            "integration.request.path.proxy": "method.request.path.proxy"
          },
          "passthroughBehavior": "when_no_match",
          "connectionType": "VPC_LINK",
          "cacheNamespace": "xaoy9a",
          "cacheKeyParameters": [
            "method.request.path.proxy"
          ]
        }
      }
    },
    "/v1/resources": {
      "options": {
        "parameters": [
          {
            "name": "proxy",
            "in": "path",
            "required": true,
            "schema": {
              "type": "string"
            }
          }
        ],
        "responses": {
          "200": {
            "description": "200 response",
            "content": {
              "application/json": {
                "schema": {
                  "$ref": "#/components/schemas/Empty"
                }
              }
            }
          }
        },
        "x-amazon-apigateway-integration": {
          "type": "http_proxy",
          "connectionId": "${stageVariables.VPCLink}",
          "httpMethod": "OPTIONS",
          "uri": "https://${stageVariables.genericApiHostname}/v1/resources",
          "responses": {
            "default": {
              "statusCode": "200"
            }
          },
          "requestParameters": {
            "integration.request.path.proxy": "method.request.path.proxy"
          },
          "passthroughBehavior": "when_no_match",
          "connectionType": "VPC_LINK",
          "cacheNamespace": "reyerr",
          "cacheKeyParameters": [
            "method.request.path.proxy"
          ]
        }
      },
      "x-amazon-apigateway-any-method": {
        "parameters": [
          {
            "name": "proxy",
            "in": "path",
            "required": true,
            "schema": {
              "type": "string"
            }
          }
        ],
        "responses": {
          "200": {
            "description": "200 response",
            "content": {}
          }
        },
        "security": [
          {
            "api_key": []
          }
        ],
        "x-amazon-apigateway-integration": {
          "type": "http_proxy",
          "connectionId": "${stageVariables.VPCLink}",
          "httpMethod": "ANY",
          "uri": "https://${stageVariables.genericApiHostname}/v1/resources",
          "responses": {
            "default": {
              "statusCode": "200",
              "responseTemplates": {
                "application/json": "#set($allowOrigins = $stageVariables.allowOrigins.split(\",\"))\n#set($currentHeader = $input.params().header.get(\"Origin\"))\n#foreach( $allowOrigin in $allowOrigins )\n#if ( $allowOrigin == $currentHeader )\n#set($context.responseOverride.header[\"Access-Control-Allow-Origin\"] = \"$currentHeader\")\n#set($flag = true)\n#end\n#end\n#if ($flag == \"\")\n#set($context.responseOverride.header[\"Access-Control-Allow-Origin\"] = \"https://www.vivaaerobus.com\")\n#end\n#set($context.responseOverride.header[\"Access-Control-Expose-Headers\"] = \"X-Correlation-ID,X-ApiVersion\")\n$input.body"
              }
            }
          },
          "requestParameters": {
            "integration.request.path.proxy": "method.request.path.proxy"
          },
          "passthroughBehavior": "when_no_match",
          "connectionType": "VPC_LINK",
          "cacheNamespace": "reyerr",
          "cacheKeyParameters": [
            "method.request.path.proxy"
          ]
        }
      }
    }
  },
  "components": {
    "schemas": {
      "Empty": {
        "title": "Empty Schema",
        "type": "object"
      }
    },
    "securitySchemes": {
      "api_key": {
        "type": "apiKey",
        "name": "x-api-key",
        "in": "header"
      }
    }
  }
}
